[
  {
    "totalPage": 3,
    "currentPage": 1,
    "totalCount": 15,
    "list": [
      {
        "id": 1,
        "bdiTitle": "만일 내가 인생을 다시 산다면(10만 부 기념 스페셜 에디션)",
        "bdiSubTitle": "벌써 마흔이 된 당신에게 해 주고 싶은 말들 42",
        "biPrice": 17200,
        "biDiscount": 0.1,
        "biDisPrice": 15480,
        "bdiImage": "photos/Image1.jpg",
        "bdiWriter": "김혜남",
        "bdiPublisher": "메이븐",
        "bdiRegDt": "2022-11-11",
        "bdiShow": "30년 동안 정신분석 전문의로 일해 온 김혜남이 벌써 마흔이 된 당신에게 해 주고 싶은 말들을 담은 책이다. 그녀는 지금껏 살면서 한 가지 후회하는 게 있다면 스스로를 너무 닦달하며 인생을 숙제처럼 산 것이라고 말한다. 의사로, 엄마로, 아내로, 며느리로, 딸로 살면서 늘 의무와 책임감에 치여 어떻게든 그 모든 역할을 잘해 내려 애썼고 그러다 보니 정작 누려야 할 삶의 즐거움들을 놓쳐 버렸다는 것이다. 그러다 22년 전 마흔세 살에 파킨슨병 진단을 받으며 비로소 알게 되었다. 자신이 없으면 집안도 병원도 제대로 안 굴러갈 것 같았는데 세상은 너무나 멀쩡히 잘 굴러갔다. 그제야 그녀는 자신의 곁을 지켜 주는 사람들을 다시 보게 되었고, 놓쳐서는 안 될 인생의 소중한 것들이 무엇인지를 돌아보게 되었다. 그래서 벌써 마흔이 되어 버린, 후회 없는 인생을 살고 싶은 사람들에게 말해 주고 싶은 것도 딱 한가지다. “하나의 문이 닫히면 또 하나의 문이 열린다. 그러니 더 이상 고민하지 말고 그냥 재미있게 살아라!” \n 이 책은 2015년 ‘오늘 내가 사는 게 재미있는 이유’라는 제목으로 출간, 독자들의 사랑을 받으며 10만 부 돌파 베스트셀러가 된 것을 기념해 펴낸 스페셜 에디션으로 저자가 30년간 정신분석 전문의로 일하며 깨달은 인생의 비밀과 22년간 파킨슨병을 앓으면서도 유쾌하게 살 수 있는 이유를 전한다. 또한 ‘완벽한 때는 결코 오지 않는 법이다’, ‘때론 버티는 것이 답이다’, ‘제발 모든 것을 상처라고 말하지 말 것’, ‘가까운 사람일수록 해서는 안 될 것들이 있다’ 등 환자들에게 미처 하지 못했던 그러나 꼭 해 주고 싶은 이야기들을 담고 있다."
      },
      {
        "id": 2,
        "bdiTitle": "트렌드 코리아 2023",
        "bdiSubTitle": "서울대 소비트렌드 분석센터의 2023 전망",
        "biPrice": 19000,
        "biDiscount": 0.1,
        "biDisPrice": 17100,
        "bdiImage": "photos/Image2.jpg",
        "bdiWriter": "김난도,전미영,최지혜,이수진,권정윤,이준영,이향은,한다혜,이혜원,추예린",
        "bdiPublisher": "미래의 창",
        "bdiRegDt": "2022-10-05",
        "bdiShow": "하지만 불경기라고 해서 무조건 소비가 위축되는 것만은 아니다. 오히려 명품 시장은 성장하는 경향이 있는데, 이 또한 단지 소득 격차가 커지기 때문만은 아니다. 소위 ‘작은 사치(small luxury)’를 위한 상품, 새로운 수요를 창출한 상품, 구매의 열망을 불러일으키는 상품 등은 불                황기에도 견조하기 때문이다. 그래서 불경기라고 하더라도 소비 시장을 획일적인 시각이 아니라 소비자 세그먼트(segment)별로 세밀하고 다     양한 관점에서 파악한다면 새로운 기회를 찾을 수 있다. 전술했듯이 2023년이 불경기라고 하지만, 지난 몇 년 사이에도 커다란 변화가 있었             다. 엄청난 기술의 진보를 이뤘고, 앱·가상·비대면 경제가 크게 발달했다. 무엇보다 MZ라고 불리는 주된 소비층의 세대 교체가 이뤄지고 있다        . 결국 핵심은 이러한 추세적 변화가 경기 침체라는 주기적 변화와 만나 어떠한 트렌드를 만들어낼 것인가를 추론하는 일이다. - 9~10쪽"
      },
      {
        "id": 3,
        "bdiTitle": "아버지의 해방일지",
        "bdiSubTitle": "정지아 장편소설",
        "biPrice": 15000,
        "biDiscount": 0.1,
        "biDisPrice": 13500,
        "bdiImage": "photos/Image3.jpg",
        "bdiWriter": "정지아",
        "bdiPublisher": "창비",
        "bdiRegDt": "2022-10-05",
        "bdiShow": "하지만 불경기라고 해서 무조건 소비가 위축되는 것만은 아니다. 오히려 명품 시장은 성장하는 경향이 있는데, 이 또한 단지 소득 격차가 커지기 때문만은 아니다. 소위 ‘작은 사치(small luxury)’를 위한 상품, 새로운 수요를 창출한 상품, 구매의 열망을 불러일으키는 상품 등은 불            황기에도 견조하기 때문이다. 그래서 불경기라고 하더라도 소비 시장을 획일적인 시각이 아니라 소비자 세그먼트(segment)별로 세밀하고 다     양한 관점에서 파악한다면 새로운 기회를 찾을 수 있다. 전술했듯이 2023년이 불경기라고 하지만, 지난 몇 년 사이에도 커다란 변화가 있었             다. 엄청난 기술의 진보를 이뤘고, 앱·가상·비대면 경제가 크게 발달했다. 무엇보다 MZ라고 불리는 주된 소비층의 세대 교체가 이뤄지고 있다        . 결국 핵심은 이러한 추세적 변화가 경기 침체라는 주기적 변화와 만나 어떠한 트렌드를 만들어낼 것인가를 추론하는 일이다. - 9~10쪽"
      },
      {
        "id": 4,
        "bdiTitle": "모든 것은 기본에서 시작한다",
        "bdiSubTitle": "실력도 기술도 사람 됨됨이도, 기본을 지키는 손웅정의 삶의 철학",
        "biPrice": 16000,
        "biDiscount": 0.1,
        "biDisPrice": 14400,
        "bdiImage": "photos/Image4.jpg",
        "bdiWriter": "손웅정",
        "bdiPublisher": "수오서재",
        "bdiRegDt": "2021-10-15",
        "bdiShow": "축구선수로서의 삶, 아버지로서의 삶, 지도자로서의 삶\n자신의 삶에 대한 반성과 성찰로 빚어낸 강건한 신념과 철학!\n“나의 축구는 온전히 아버지의 작품이다”-손흥민"
      },
      {
        "id": 5,
        "bdiTitle": "불편한 편의점(40만부 기념 벚꽃 에디션)",
        "bdiSubTitle": "김호연 장편소설",
        "biPrice": 14000,
        "biDiscount": 0.1,
        "biDisPrice": 12600,
        "bdiImage": "photos/Image5.jpg",
        "bdiWriter": "김호연",
        "bdiPublisher": "나무옆의자",
        "bdiRegDt": "2021-04-20",
        "bdiShow": "김호연 작가의 장편소설 『불편한 편의점』이 누적 판매 40만부 돌파를 기념하여 벚꽃 에디션으로 새 단장 했습니다. 2021년 4월에 출간되어 전 연령층의 폭넓은 공감을 얻으며 소설 읽기 바람을 일으킨 『불편한 편의점』의 열기는 지금도 현재진행형입니다. “읽는 내내 마음이 따뜻하고 먹먹했다” “눈가에 미소와 눈물이 떠나지 않았다” “시간 가는 줄 모르고 몰입해서 읽었다” “작은 친절과 소통의 소중함을 일깨워준 책” “힘든 시기를 버티게 해준 책” 등의 독자 리뷰 하나하나가 책이 가진 힘을 말해줍니다. 청파동 골목 모퉁이의 작은 가게, 서울역 노숙인이었던 정체불명의 야간 알바가 지키는 곳, 불편한데 자꾸 가고 싶은 봄날의 편의점으로 여러분을 초대합니다."
      }
    ]
  },
  {
    "totalPage": 3,
    "currentPage": 2,
    "totalCount": 15,
    "list": [
      {
        "id": 6,
        "bdiTitle": "불편한 편의점 2(단풍 에디션)",
        "bdiSubTitle": "김호연 장편소설",
        "biPrice": 14000,
        "biDiscount": 0.1,
        "biDisPrice": 12600,
        "bdiImage": "photos/Image6.jpg",
        "bdiWriter": "김호연",
        "bdiPublisher": "나무옆의자",
        "bdiRegDt": "2022-08-10",
        "bdiShow": "70만 독자를 사로잡은 재미와 감동 『불편한 편의점』이 다시 열렸다!\n한층 진득해진 이야기와 궁금증 가득한 캐릭터\n고난의 시간을 통과하는 사람들이 다시 편의점에 모여든다!"
      },
      {
        "id": 7,
        "bdiTitle": "마흔에 읽는 니체",
        "bdiSubTitle": "지금 이 순간을 살기 위한 철학 수업",
        "biPrice": 16000,
        "biDiscount": 0.1,
        "biDisPrice": 14400,
        "bdiImage": "photos/Image7.jpg",
        "bdiWriter": "장재형",
        "bdiPublisher": "유노북스",
        "bdiRegDt": "2022-09-01",
        "bdiShow": "내일 죽을 것처럼 오늘을 사랑하라!\n마흔의 삶에 자극제가 되는 니체의 25가지 조언"
      },
      {
        "id": 8,
        "bdiTitle": "나는 논어를 만나 행복해졌다",
        "bdiSubTitle": "나로 살아가기 위한 든든한 인생 주춧돌, 논어 한마디",
        "biPrice": 17800,
        "biDiscount": 0.1,
        "biDisPrice": 16020,
        "bdiImage": "photos/Image8.jpg",
        "bdiWriter": "판덩",
        "bdiPublisher": "미디어숲",
        "bdiRegDt": "2023-01-10",
        "bdiShow": "4000만 독자가 믿고 따르는 독서회 리더,\n판덩이 설명하는 생활밀착형 논어\n인생에 한 번은 논어를 읽어야 한다"
      },
      {
        "id": 9,
        "bdiTitle": "역행자",
        "bdiSubTitle": "돈.시간.운명으로부터 완전한 자유를 얻는 7단계 인생 공략집",
        "biPrice": 17500,
        "biDiscount": 0.1,
        "biDisPrice": 15750,
        "bdiImage": "photos/Image8.jpg",
        "bdiWriter": "자청",
        "bdiPublisher": "웅진지식하우스",
        "bdiRegDt": "2022-06-03",
        "bdiShow": "“절대 읽지 마라! \n죽을 때까지 순리자로 살고 싶다면!” \n오타쿠 흙수저에서 \n월 1억 자동 수익을 실현한 무자본 연쇄창업마,\n라이프해커 자청의 인생 역주행 공식 대공개!"
      },
      {
        "id": 10,
        "bdiTitle": "흔한남매 12",
        "biPrice": 14500,
        "biDiscount": 0.1,
        "biDisPrice": 13050,
        "bdiImage": "photos/Image9.jpg",
        "bdiWriter": "백난도",
        "bdiPublisher": "미래엔아이세움",
        "bdiRegDt": "2022-11-30",
        "bdiShow": "흔한남매가 선물하는 포근포근한 웃음과 공감!\n개성 만점 으뜸이 채널, 공포의 버스 안내 방송, 떡볶이 뷔페에 간 흔한남매, 으뜸이의 최악의 생일 파티, 상상 속 방학과 현실 속 방학의 차이, 엄지의 비밀 일상 등 마음이 포근해지는 흔한 일상 속으로 떠나 볼까요?"
      }
    ]
  },
  {
    "totalPage": 3,
    "currentPage": 3,
    "totalCount": 15,
    "list": [
      {
        "id": 11,
        "bdiTitle": "헤리티지:대한민국의 유산",
        "bdiSubTitle": "대한민국의 유산",
        "biPrice": 20000,
        "biDiscount": 0.1,
        "biDisPrice": 18000,
        "bdiImage": "photos/image11.jpg",
        "bdiWriter": "아크",
        "bdiPublisher": "헤리티지 출판사",
        "bdiRegDt": "2021-12-27",
        "bdiShow": "a\nsdfgagasdg\n"
      },
      {
        "id": 12,
        "bdiTitle": "해커스 토익 기출보카",
        "bdiSubTitle": "RC,LC 필수 토익 보카",
        "biPrice": 12900,
        "biDiscount": 0.1,
        "biDisPrice": 11610,
        "bdiImage": "photos/image12.jpg",
        "bdiWriter": "David Cho",
        "bdiPublisher": "해커스어학연구소",
        "bdiRegDt": "2022-03-14",
        "bdiShow": "주제별 연상암기로 토익 영단어 30일 완성\n1. 토익 기출 보카 30일 완성!\n2. 주제별 연상암기로 쉽고 재미있게 단어 학습\n3. 최신 기출 단어 및 출제포인트 수록"
      },
      {
        "id": 13,
        "bdiTitle": "쎈 중등수학 3-1",
        "bdiSubTitle": "중등 수학 3-1",
        "biPrice": 16000,
        "biDiscount": 0.1,
        "biDisPrice": 14400,
        "bdiImage": "photos/image13.jpg",
        "bdiWriter": "홍범준, 신사고수학콘텐츠연구회 저자",
        "bdiPublisher": "좋은책 신사고",
        "bdiRegDt": "2021-07-01",
        "bdiShow": "학교 시험 출제 유형을 총망라한 국내 최고의 수학 문제 기본서\n① A, B, C 3단계 수준별 학습 체제로 학습 효과 극대화 \n② 최신 학교 시험 기출 문제를 수록하여 빈출&신유형 대비 가능\n③ 융합적 사고력 향상을 위한 창의 문제 수록"
      },
      {
        "id": 14,
        "bdiTitle": "나는 오늘의 내가 좋아",
        "bdiSubTitle": "긍정토끼 몰랑이의 몰랑몰랑 마음일기",
        "biPrice": 16000,
        "biDiscount": 0.1,
        "biDisPrice": 14400,
        "bdiImage": "photos/image14.jpg",
        "bdiWriter": "윤혜지",
        "bdiPublisher": "북로망스",
        "bdiRegDt": "2022-12-12",
        "bdiShow": "“그 아픔과 상처에 보내는 공감과 위로!”\n비정규직의 비애에서 삶의 의미까지 \n누구든 한 번쯤 겪을 법한 19가지 에피소드"
      },
      {
        "id": 15,
        "bdiTitle": "파친코2",
        "bdiSubTitle": "이민진 장편소설",
        "biPrice": 15800,
        "biDiscount": 0.1,
        "biDisPrice": 14220,
        "bdiImage": "photos/image15.jpg",
        "bdiWriter": "이민진",
        "bdiPublisher": "인플루엔셜",
        "bdiRegDt": "2022-08-25",
        "bdiShow": "“역사는 우리를 저버렸지만, 그래도 상관없다”\n역사에 외면당한 재일조선인 가족의 대서사극\n전 세계를 감동시킨 이민진 작가 화제작 《파친코》 새롭게 출간!\n“내게 ‘한국인’은 이야기의 주인공이 될 가치가 있는 이들이다.\n나는 가능한 한 오래 한국인 이야기를 쓰고 싶다.” \n- ‘한국 독자들에게’ 중에서"
      }
    ]
  }
]
